1403715274312143104
1403715274362142976
1403715274412143104
1403715274462142976
1403715274512143104
1403715274562142976
1403715274612143104
1403715274662142976
1403715274712143104
1403715274762142976
